../../../data/sentiment_incld/CVE/size_4_stride_2/graphsage/,_BT.json,4,-0.001813311,0.089839525,0.019874212,5.934217939
../../../data/sentiment_incld/CVE/size_4_stride_2/graphsage/,_JI.json,2,0.000220103,0.051763689,0.008821731,4.71600911
../../../data/sentiment_incld/CVE/size_4_stride_2/graphsage/,_JI.json,4,-0.029313528,0.052613023,0.009082327,4.758909688
../../../data/sentiment_incld/CVE/size_4_stride_2/graphsage/,_BT.json,2,-0.001366557,0.086965003,0.01986535,5.556048691
../../../data/sentiment_incld/CVE/size_4_stride_2/graphsage/,_BT.json,4,-0.005229495,0.087596525,0.019941984,5.63564893
../../../data/sentiment_incld/CVE/size_4_stride_2/graphsage/,_JI.json,2,-0.002731924,0.051157749,0.008847779,4.601208102
../../../data/sentiment_incld/CVE/size_4_stride_2/graphsage/,_JI.json,4,-0.001531268,0.049532265,0.008837185,4.357465719
../../../data/sentiment_incld/CVE/size_6_stride_2/graphsage/,_BT.json,4,-0.020447131122652396,0.07136421971147307,0.011976363584793044,7.265967242043106
../../../data/sentiment_incld/CVE/size_6_stride_2/graphsage/,_JI.json,4,-0.02165613339581851,0.03914521576561201,0.004692349819553313,5.153715242671645
../../../data/sentiment_incld/CVE/size_6_stride_2/graphsage/,_BT.json,4,-0.006646876102349486,0.06864483030813479,0.011814398435746878,6.80132587539799
../../../data/sentiment_incld/CVE/size_6_stride_2/graphsage/,_JI.json,4,-0.01445098198150152,0.03871702483022176,0.00465925738283838,5.168176283525394
../../../data/sentiment_incld/ransomware/size_6_stride_1/graphsage/,_BT.json,4,-0.005912911759270445,0.05608882481555987,0.008494182627694155,10.04057613255932
../../../data/sentiment_incld/CVE/size_3_stride_3/graphsage/,_BT.json,4,-0.04469452633924642,0.09830188534934212,0.01868047994932442,6.10619753358585
../../../data/sentiment_incld/CVE/size_3_stride_3/graphsage/,_BT.json,4,-0.02504822094847503,0.09591341718944671,0.01832917877498341,6.094607008025459
../../../data/sentiment_incld/CVE/size_3_stride_3/graphsage/,_JI.json,4,-0.009581149736630934,0.05347136608604198,0.007839243653901743,4.690573865602001
../../../data/sentiment_incld/CVE/size_3_stride_3/graphsage/,_BT.json,4,-0.05383077725742269,0.09948547451432471,0.018843847850453416,6.2218618074312015
../../../data/sentiment_incld/CVE/size_3_stride_3/graphsage/,_JI.json,4,-0.010891734248412277,0.05419712611922759,0.00784942014275513,4.872757019231985
../../../data/sentiment_incld/CVE/size_3_stride_3/graphsage/,_LT.json,4,0.8324265173646319,0.09730357639589451,0.02585112345088058,0.7276797113267798
../../../data/sentiment_incld/CVE/size_3_stride_3/graphsage/,_LT.json,4,0.8329033335352876,0.09717791316848008,0.025777566265715323,0.7278787365687165
../../../data/sentiment_incld/CVE/size_4_stride_2/graphsage/,_BT.json,4,-0.013951016369964542,0.09247923879445846,0.02011500314014376,6.138945456055051
../../../data/sentiment_incld/CVE/size_4_stride_2/graphsage/,_JI.json,4,-0.007560974964228917,0.051187681818812045,0.008890389100277233,4.553630681898766
../../../data/sentiment_incld/CVE/size_4_stride_2/graphsage/,_BT.json,4,-0.009983194628643277,0.09249217575787115,0.020036288542004742,6.190259366839192
../../../data/sentiment_incld/CVE/size_4_stride_2/graphsage/,_JI.json,4,-0.0044437569545352495,0.05094058258489642,0.008862883786251398,4.4979840136494955
../../../data/sentiment_incld/CVE/size_4_stride_2/graphsage/,_LT.json,4,0.8379456508962433,0.0981845802724452,0.025038402387318207,0.9804114600774442
../../../data/sentiment_incld/CVE/size_4_stride_2/graphsage/,_LT.json,4,0.8382894238115248,0.09807422399461455,0.024985287339000878,0.980152318690529
../../../data/sentiment_incld/CVE/size_6_stride_2/graphsage/,_BT.json,4,-0.018214632512520534,0.07134682727608742,0.011950162114631556,7.476782792548897
../../../data/sentiment_incld/CVE/size_6_stride_2/graphsage/,_JI.json,4,-0.01399875954206431,0.0383444911879333,0.004657180376874508,5.090577615855622
../../../data/sentiment_incld/CVE/size_6_stride_2/graphsage/,_BT.json,4,-0.02350084478133252,0.07182631572900319,0.012012203153492664,7.630364306000624
../../../data/sentiment_incld/CVE/size_6_stride_2/graphsage/,_JI.json,4,-0.014358105152100675,0.038272984277252,0.004658830810179113,5.073813672648253
../../../data/sentiment_incld/CVE/size_6_stride_2/graphsage/,_LT.json,4,0.86060106953005,0.08569146163186085,0.019560176684857194,0.8975521781348799
../../../data/sentiment_incld/ransomware/size_6_stride_1/graphsage/,_BT.json,4,-0.02748019796621115,0.06085728973840014,0.008676302238332323,11.580186665600657
../../../data/sentiment_incld/ransomware/size_6_stride_1/graphsage/,_JI.json,4,-0.018226686432929906,0.027187252179497193,0.002451198144685256,7.858322290746523
../../../data/sentiment_incld/ransomware/size_6_stride_1/graphsage/,_LT.json,4,0.8175620190255533,0.08475222372156593,0.01806002119512456,1.0810482189981416
../../../data/sentiment_incld/ransomware/size_5_stride_2/graphsage/,_BT.json,4,-0.03640303786190913,0.07512881413366454,0.011519714210203173,13.163806539805206
../../../data/sentiment_incld/ransomware/size_5_stride_2/graphsage/,_JI.json,4,-0.04675715297636751,0.03467167223353027,0.0030468521392580127,9.471485089152516
../../../data/sentiment_incld/ransomware/size_5_stride_2/graphsage/,_LT.json,4,0.8195421982589628,0.10179684678610244,0.024715595184445365,1.1982310813118235
../../../data/sentiment_incld/ransomware/size_5_stride_2/graphsage/,_BT.json,4,-0.01712136054642799,0.07189202702303872,0.011305396609758921,12.154580401617864
../../../data/sentiment_incld/ransomware/size_5_stride_2/graphsage/,_JI.json,4,-0.009645626866855217,0.027409753361066658,0.0029388296314620233,6.263732832031933
../../../data/sentiment_incld/ransomware/size_5_stride_2/graphsage/,_LT.json,4,0.8193790484924982,0.10183566346144093,0.02473794026203953,1.1993430777792597
../../../data/sentiment_incld/cybersecurity/size_6_stride_1/graphsage/,_BT.json,4,-0.007255381950793671,0.05469388326198412,0.017749228287167535,73.56206605943039
../../../data/sentiment_incld/cybersecurity/size_6_stride_1/graphsage/,_JI.json,4,-9.078018219905887,0.015334769984725723,0.000256256349015088,51.8000549156094
../../../data/sentiment_incld/cybersecurity/size_6_stride_1/graphsage/,_LT.json,4,0.6564301417213776,0.13533807948660048,0.035538107465936296,1.440542579538214
../../../data/sentiment_incld/CVE/size_3_stride_3/graphsage/,_BT.json,4,-0.037705731712253776,0.09624592683748454,0.018555511324900822,6.284430029675895
